"Age group","2010 to 2012","2011 to 2013","2012 to 2014","2013 to 2015","2014 to 2016"
"0","418","403","415","381","350"
"1","21","27","24","21","19"
"2","14","17","17","16","15"
"3","10","12","12","13","12"
"4","8","9","9","11","10"
"5","7","7","7","9","9"
"6","6","6","6","8","8"
"7","6","5","5","7","7"
"8","6","5","5","6","6"
"9","7","5","4","6","6"
"10","8","6","4","6","6"
"11","9","7","5","6","7"
"12","11","8","6","8","8"
"13","13","10","8","10","10"
"14","17","13","12","14","15"
"15","21","19","20","22","23"
"16","28","26","32","33","34"
"17","36","35","43","44","46"
"18","46","45","51","51","53"
"19","57","57","56","57","58"
"20","68","68","61","62","63"
"21","76","77","65","67","69"
"22","82","84","69","72","75"
"23","84","86","73","77","82"
"24","82","85","76","81","89"
"25","79","81","78","86","97"
"26","77","79","80","90","103"
"27","76","77","82","94","110"
"28","76","77","84","97","115"
"29","77","77","85","100","119"
"30","79","78","86","103","122"
"31","82","79","86","105","123"
"32","85","81","87","106","124"
"33","88","84","88","106","123"
"34","91","87","90","104","121"
"35","94","91","91","102","119"
"36","97","95","94","101","117"
"37","102","101","98","102","117"
"38","109","108","104","106","120"
"39","118","116","112","112","126"
"40","128","126","122","122","136"
"41","141","138","134","134","147"
"42","154","150","147","147","160"
"43","168","163","161","161","173"
"44","183","177","176","176","187"
"45","199","192","191","192","202"
"46","216","208","208","209","218"
"47","234","226","226","226","236"
"48","253","244","245","245","254"
"49","273","264","265","265","273"
"50","293","285","286","286","294"
"51","315","307","309","308","315"
"52","339","332","333","332","339"
"53","366","359","360","359","365"
"54","394","388","389","387","393"
"55","425","419","420","419","424"
"56","459","454","455","453","457"
"57","496","492","492","490","493"
"58","536","533","533","530","533"
"59","580","577","578","574","576"
"60","628","626","626","621","622"
"61","680","679","679","673","673"
"62","737","737","736","730","728"
"63","799","800","798","791","788"
"64","866","868","866","858","853"
"65","939","942","939","930","924"
"66","1019","1023","1019","1009","1001"
"67","1105","1110","1105","1094","1084"
"68","1199","1205","1199","1186","1174"
"69","1300","1307","1299","1285","1271"
"70","1410","1417","1407","1392","1375"
"71","1527","1535","1524","1506","1487"
"72","1654","1661","1648","1629","1607"
"73","1789","1796","1781","1760","1736"
"74","1933","1939","1922","1899","1873"
"75","2086","2091","2071","2046","2017"
"76","2246","2250","2227","2201","2169"
"77","2415","2416","2390","2362","2329"
"78","2589","2587","2558","2529","2494"
"79","2768","2762","2730","2700","2663"
"80","2949","2939","2903","2873","2835"
"81","3130","3114","3075","3045","3007"
"82","3306","3284","3243","3213","3175"
"83","3473","3445","3402","3372","3336"
"84","3626","3591","3546","3519","3485"
"85","3757","3716","3672","3647","3617"
"86","3860","3813","3771","3749","3724"
"87","3927","3876","3836","3820","3800"
"88","3949","3896","3862","3851","3839"
"89","3919","3866","3840","3836","3831"
"90","3829","3780","3764","3768","3770"
"91","3662","3622","3620","3632","3642"
"92","3409","3385","3398","3419","3435"
"93","3082","3078","3109","3137","3158"
"94","2701","2720","2767","2801","2825"
"95","2310","2363","2448","2490","2522"
"96","1879","1945","2031","2074","2103"
"97","1474","1547","1629","1671","1695"
"98","1114","1187","1260","1299","1318"
"99","809","877","939","973","986"
"100","565","623","673","701","710"
"101","378","426","463","485","490"
"102","242","279","306","322","325"
"103","149","175","194","205","206"
"104","88","106","118","125","126"
"105","49","61","69","73","73"
"106","27","34","38","41","41"
"107","14","18","21","22","22"
"108","7","9","11","12","11"
"109","3","5","5","6","6"
"110","3","4","5","5","5"
