<svg xmlns="http://www.w3.org/2000/svg" viewBox='0 0 15 15' height='16' width='16'>
	<rect x='1' y='1' width='12' height='9' stroke='grey' fill='none' />
	<line x1='3' y1='3' x2='10' y2='3' stroke='grey' stroke-width='1' />
	<line x1='3' y1='6' x2='10' y2='6' stroke='grey' stroke-width='1' />
	<circle cx='9' cy='9' r='5' fill='white' stroke='green' stroke-width='1.5' />
	<line x1='6' y1='9' x2='12' y2='9' stroke='green' stroke-width='1.5' />
</svg>
